Foundations for statistical inference - Sampling distributions
…
The Data:

We will first create our population assuming a population size of 100,000. This means 20,000 (20%) of the

population think the work scientists do does not benefit them personally and the remaining 80,000

think it does.

global_monitor <- tibble(
  scientist_work = c(rep("Benefits", 80000), rep("Doesn't benefit", 20000))
)

global_monitor

## # A tibble: 100,000 x 1
##    scientist_work
##    <chr>         
##  1 Benefits      
##  2 Benefits      
##  3 Benefits      
##  4 Benefits      
##  5 Benefits      
##  6 Benefits      
##  7 Benefits      
##  8 Benefits      
##  9 Benefits      
## 10 Benefits      
## # ... with 99,990 more rows
…
The unknown sampling distribution:

Use the sample_n command to survey the population.

samp1 <- global_monitor %>%
  sample_n(50)

samp1

## # A tibble: 50 x 1
##    scientist_work 
##    <chr>          
##  1 Benefits       
##  2 Benefits       
##  3 Benefits       
##  4 Benefits       
##  5 Benefits       
##  6 Doesn't benefit
##  7 Benefits       
##  8 Benefits       
##  9 Benefits       
## 10 Doesn't benefit
## # ... with 40 more rows
…
Use R to take 15,000 different samples of size 50 from the population, calculate the proportion of

responses in each sample, filter for only the Doesnt benefit responses, and store each result

in a vector called sample_props50.

sample_props50 <- global_monitor %>%
                    rep_sample_n(size = 50, reps = 15000, replace = TRUE) %>%
                    count(scientist_work) %>%
                    mutate(p_hat = n /sum(n)) %>%
                    filter(scientist_work == "Doesn't benefit")

sample_props50

## # A tibble: 14,998 x 4
## # Groups:   replicate [14,998]
##    replicate scientist_work      n p_hat
##        <int> <chr>           <int> <dbl>
##  1         1 Doesn't benefit    14  0.28
##  2         2 Doesn't benefit    11  0.22
##  3         3 Doesn't benefit    10  0.2 
##  4         4 Doesn't benefit     8  0.16
##  5         5 Doesn't benefit    11  0.22
##  6         6 Doesn't benefit     5  0.1 
##  7         7 Doesn't benefit     5  0.1 
##  8         8 Doesn't benefit    15  0.3 
##  9         9 Doesn't benefit    12  0.24
## 10        10 Doesn't benefit     8  0.16
## # ... with 14,988 more rows
…
To make sure you understand how sampling distributions are built, and exactly what the rep_sample_n function

does, try modifying the code to create a sampling distribution of 25 sample proportions from samples

of size 10, and put them in a data frame named sample_props_small. Print the output. How many

observations are there in this object called sample_props_small? What does each observation represent?

rep_sample_n <- global_monitor %>% rep_sample_n(size = 10, reps = 25, replace = TRUE) %>%
                    count(scientist_work) %>%
                    mutate(p_hat = n /sum(n)) %>%
                    filter(scientist_work == "Doesn't benefit")
rep_sample_n

## # A tibble: 23 x 4
## # Groups:   replicate [23]
##    replicate scientist_work      n p_hat
##        <int> <chr>           <int> <dbl>
##  1         1 Doesn't benefit     3   0.3
##  2         2 Doesn't benefit     2   0.2
##  3         3 Doesn't benefit     3   0.3
##  4         4 Doesn't benefit     1   0.1
##  5         5 Doesn't benefit     1   0.1
##  6         6 Doesn't benefit     3   0.3
##  7         7 Doesn't benefit     1   0.1
##  8         8 Doesn't benefit     1   0.1
##  9         9 Doesn't benefit     3   0.3
## 10        10 Doesn't benefit     2   0.2
## # ... with 13 more rows
…
Exercise 6: # Use the app below to create sampling distributions of proportions of Doesnt benefit from samples of size 10, # 50, and 100. Use 5,000 simulations. What does each observation in the sampling distribution represent? # How does the mean, standard error, and shape of the sampling distribution change as the sample size increases? # How (if at all) do these values change if you increase the number of simulations? (You do not need to include # plots in your answer.)

sample_app10 <- global_monitor %>% rep_sample_n(size = 10, reps = 5000, replace = TRUE) %>%
                    count(scientist_work) %>%
                    mutate(p_hat = n /sum(n)) %>%
                    filter(scientist_work == "Doesn't benefit")
sample_app10

## # A tibble: 4,469 x 4
## # Groups:   replicate [4,469]
##    replicate scientist_work      n p_hat
##        <int> <chr>           <int> <dbl>
##  1         1 Doesn't benefit     3   0.3
##  2         2 Doesn't benefit     1   0.1
##  3         3 Doesn't benefit     5   0.5
##  4         4 Doesn't benefit     4   0.4
##  5         5 Doesn't benefit     3   0.3
##  6         6 Doesn't benefit     1   0.1
##  7         7 Doesn't benefit     1   0.1
##  8         8 Doesn't benefit     3   0.3
##  9         9 Doesn't benefit     2   0.2
## 10        11 Doesn't benefit     3   0.3
## # ... with 4,459 more rows
…
