Week 8 - Introduction to Linear Regression
…
## Loading required package: cherryblossom

## Warning: package 'cherryblossom' was built under R version 4.1.2

## Loading required package: usdata

## Warning: package 'usdata' was built under R version 4.1.2

data('hfi', package='openintro')

The Data

hfi

## # A tibble: 1,458 x 123
##     year ISO_code countries region pf_rol_procedur~ pf_rol_civil pf_rol_criminal
##    <dbl> <chr>    <chr>     <chr>             <dbl>        <dbl>           <dbl>
##  1  2016 ALB      Albania   Easte~             6.66         4.55            4.67
##  2  2016 DZA      Algeria   Middl~            NA           NA              NA   
##  3  2016 AGO      Angola    Sub-S~            NA           NA              NA   
##  4  2016 ARG      Argentina Latin~             7.10         5.79            4.34
##  5  2016 ARM      Armenia   Cauca~            NA           NA              NA   
##  6  2016 AUS      Australia Ocean~             8.44         7.53            7.36
##  7  2016 AUT      Austria   Weste~             8.97         7.87            7.67
##  8  2016 AZE      Azerbaij~ Cauca~            NA           NA              NA   
##  9  2016 BHS      Bahamas   Latin~             6.93         6.01            6.26
## 10  2016 BHR      Bahrain   Middl~            NA           NA              NA   
## # ... with 1,448 more rows, and 116 more variables: pf_rol <dbl>,
## #   pf_ss_homicide <dbl>, pf_ss_disappearances_disap <dbl>,
## #   pf_ss_disappearances_violent <dbl>, pf_ss_disappearances_organized <dbl>,
## #   pf_ss_disappearances_fatalities <dbl>, pf_ss_disappearances_injuries <dbl>,
## #   pf_ss_disappearances <dbl>, pf_ss_women_fgm <dbl>,
## #   pf_ss_women_missing <dbl>, pf_ss_women_inheritance_widows <dbl>,
## #   pf_ss_women_inheritance_daughters <dbl>, pf_ss_women_inheritance <dbl>,
## #   pf_ss_women <dbl>, pf_ss <dbl>, pf_movement_domestic <dbl>,
## #   pf_movement_foreign <dbl>, pf_movement_women <dbl>, pf_movement <dbl>,
…
