Week1
…
## Warning: package 'cherryblossom' was built under R version 4.1.2

## Loading required package: usdata

## Warning: package 'usdata' was built under R version 4.1.2

Assignment 1:

Data for present day birth records in the United States

data('present', package='openintro')

present

## # A tibble: 63 x 3
##     year    boys   girls
##    <dbl>   <dbl>   <dbl>
##  1  1940 1211684 1148715
##  2  1941 1289734 1223693
##  3  1942 1444365 1364631
##  4  1943 1508959 1427901
##  5  1944 1435301 1359499
##  6  1945 1404587 1330869
##  7  1946 1691220 1597452
##  8  1947 1899876 1800064
##  9  1948 1813852 1721216
## 10  1949 1826352 1733177
## # ... with 53 more rows
…
##  [1] 2360399 2513427 2808996 2936860 2794800 2735456 3288672 3699940 3535068
## [10] 3559529 3554149 3750850 3846986 3902120 4017362 4047295 4163090 4254784
## [19] 4203812 4244796 4257850 4268326 4167362 4098020 4027490 3760358 3606274
## [28] 3520959 3501564 3600206 3731386 3555970 3258411 3136965 3159958 3144198
## [37] 3167788 3326632 3333279 3494398 3612258 3629238 3680537 3638933 3669141
## [46] 3760561 3756547 3809394 3909510 4040958 4158212 4110907 4065014 4000240
## [55] 3952767 3899589 3891494 3880894 3941553 3959417 4058814 4025933 4021726

Adding a new variable to the dataframe

present <- present %>%
  mutate(total = boys + girls)
present

## # A tibble: 63 x 4
##     year    boys   girls   total
##    <dbl>   <dbl>   <dbl>   <dbl>
##  1  1940 1211684 1148715 2360399
##  2  1941 1289734 1223693 2513427
##  3  1942 1444365 1364631 2808996
##  4  1943 1508959 1427901 2936860
##  5  1944 1435301 1359499 2794800
##  6  1945 1404587 1330869 2735456
##  7  1946 1691220 1597452 3288672
##  8  1947 1899876 1800064 3699940
##  9  1948 1813852 1721216 3535068
## 10  1949 1826352 1733177 3559529
## # ... with 53 more rows

Exercise 3: To generate a plot of the proportion of boys born over time

present <- present %>%
  mutate(boy_ratio = boys/total)
present

## # A tibble: 63 x 5
##     year    boys   girls   total boy_ratio
##    <dbl>   <dbl>   <dbl>   <dbl>     <dbl>
##  1  1940 1211684 1148715 2360399     0.513
##  2  1941 1289734 1223693 2513427     0.513
##  3  1942 1444365 1364631 2808996     0.514
##  4  1943 1508959 1427901 2936860     0.514
##  5  1944 1435301 1359499 2794800     0.514
##  6  1945 1404587 1330869 2735456     0.513
##  7  1946 1691220 1597452 3288672     0.514
##  8  1947 1899876 1800064 3699940     0.513
##  9  1948 1813852 1721216 3535068     0.513
## 10  1949 1826352 1733177 3559529     0.513
## # ... with 53 more rows
…
# boys birth ratio per year is a downward slope from 1940 to 2000

present <- present %>%
  mutate(boy_to_girl_ratio = boys / girls)
present

## # A tibble: 63 x 6
##     year    boys   girls   total boy_ratio boy_to_girl_ratio
##    <dbl>   <dbl>   <dbl>   <dbl>     <dbl>             <dbl>
##  1  1940 1211684 1148715 2360399     0.513              1.05
##  2  1941 1289734 1223693 2513427     0.513              1.05
##  3  1942 1444365 1364631 2808996     0.514              1.06
##  4  1943 1508959 1427901 2936860     0.514              1.06
##  5  1944 1435301 1359499 2794800     0.514              1.06
##  6  1945 1404587 1330869 2735456     0.513              1.06
##  7  1946 1691220 1597452 3288672     0.514              1.06
##  8  1947 1899876 1800064 3699940     0.513              1.06
##  9  1948 1813852 1721216 3535068     0.513              1.05
## 10  1949 1826352 1733177 3559529     0.513              1.05
## # ... with 53 more rows

To see the boolean output if the boys are more than girls

present <- present %>%
  mutate(more_boys = boys > girls)
present

## # A tibble: 63 x 7
##     year    boys   girls   total boy_ratio boy_to_girl_ratio more_boys
##    <dbl>   <dbl>   <dbl>   <dbl>     <dbl>             <dbl> <lgl>    
##  1  1940 1211684 1148715 2360399     0.513              1.05 TRUE     
##  2  1941 1289734 1223693 2513427     0.513              1.05 TRUE     
##  3  1942 1444365 1364631 2808996     0.514              1.06 TRUE     
##  4  1943 1508959 1427901 2936860     0.514              1.06 TRUE     
##  5  1944 1435301 1359499 2794800     0.514              1.06 TRUE     
##  6  1945 1404587 1330869 2735456     0.513              1.06 TRUE     
##  7  1946 1691220 1597452 3288672     0.514              1.06 TRUE     
##  8  1947 1899876 1800064 3699940     0.513              1.06 TRUE     
##  9  1948 1813852 1721216 3535068     0.513              1.05 TRUE     
## 10  1949 1826352 1733177 3559529     0.513              1.05 TRUE     
## # ... with 53 more rows
…
Exercise 6

Make a plot that displays the proportion of boys born over time. What do you see?

Does Arbuthnots observation about boys being born in greater proportion

than girls hold up in the U.S.?

Include the plot in your response

present <- present %>%
  mutate(girl_ratio = girls/total)
present

## # A tibble: 63 x 8
##     year    boys   girls   total boy_ratio boy_to_girl_rat~ more_boys girl_ratio
##    <dbl>   <dbl>   <dbl>   <dbl>     <dbl>            <dbl> <lgl>          <dbl>
##  1  1940 1211684 1148715 2360399     0.513             1.05 TRUE           0.487
##  2  1941 1289734 1223693 2513427     0.513             1.05 TRUE           0.487
##  3  1942 1444365 1364631 2808996     0.514             1.06 TRUE           0.486
##  4  1943 1508959 1427901 2936860     0.514             1.06 TRUE           0.486
##  5  1944 1435301 1359499 2794800     0.514             1.06 TRUE           0.486
##  6  1945 1404587 1330869 2735456     0.513             1.06 TRUE           0.487
##  7  1946 1691220 1597452 3288672     0.514             1.06 TRUE           0.486
##  8  1947 1899876 1800064 3699940     0.513             1.06 TRUE           0.487
##  9  1948 1813852 1721216 3535068     0.513             1.05 TRUE           0.487
## 10  1949 1826352 1733177 3559529     0.513             1.05 TRUE           0.487
## # ... with 53 more rows
…
# Analysis: you can see that the girls birth ratio increases from 1940 to 2000
# Whereas the boys birth ratio is decreasing from 1940 to 2000

Exercise 7:

In what year did we see the most total number of births in the U.S.?

Hint: First calculate the totals and save it as a new variable.

present <- present %>%
  mutate(total = boys + girls)
present

## # A tibble: 63 x 8
##     year    boys   girls   total boy_ratio boy_to_girl_rat~ more_boys girl_ratio
##    <dbl>   <dbl>   <dbl>   <dbl>     <dbl>            <dbl> <lgl>          <dbl>
##  1  1940 1211684 1148715 2360399     0.513             1.05 TRUE           0.487
##  2  1941 1289734 1223693 2513427     0.513             1.05 TRUE           0.487
##  3  1942 1444365 1364631 2808996     0.514             1.06 TRUE           0.486
##  4  1943 1508959 1427901 2936860     0.514             1.06 TRUE           0.486
##  5  1944 1435301 1359499 2794800     0.514             1.06 TRUE           0.486
##  6  1945 1404587 1330869 2735456     0.513             1.06 TRUE           0.487
##  7  1946 1691220 1597452 3288672     0.514             1.06 TRUE           0.486
##  8  1947 1899876 1800064 3699940     0.513             1.06 TRUE           0.487
##  9  1948 1813852 1721216 3535068     0.513             1.05 TRUE           0.487
## 10  1949 1826352 1733177 3559529     0.513             1.05 TRUE           0.487
## # ... with 53 more rows

total_desc <- present %>%
  arrange(desc(total))
total_desc

## # A tibble: 63 x 8
##     year    boys   girls   total boy_ratio boy_to_girl_rat~ more_boys girl_ratio
##    <dbl>   <dbl>   <dbl>   <dbl>     <dbl>            <dbl> <lgl>          <dbl>
##  1  1961 2186274 2082052 4268326     0.512             1.05 TRUE           0.488
##  2  1960 2179708 2078142 4257850     0.512             1.05 TRUE           0.488
##  3  1957 2179960 2074824 4254784     0.512             1.05 TRUE           0.488
##  4  1959 2173638 2071158 4244796     0.512             1.05 TRUE           0.488
##  5  1958 2152546 2051266 4203812     0.512             1.05 TRUE           0.488
##  6  1962 2132466 2034896 4167362     0.512             1.05 TRUE           0.488
##  7  1956 2133588 2029502 4163090     0.513             1.05 TRUE           0.487
##  8  1990 2129495 2028717 4158212     0.512             1.05 TRUE           0.488
##  9  1991 2101518 2009389 4110907     0.511             1.05 TRUE           0.489
## 10  1963 2101632 1996388 4098020     0.513             1.05 TRUE           0.487
## # ... with 53 more rows
…
