Week1 Assignment2 - Introduction to Data
…
## Loading required package: cherryblossom

## Warning: package 'cherryblossom' was built under R version 4.1.2

## Loading required package: usdata

## Warning: package 'usdata' was built under R version 4.1.2

The Data:

#  Load and view the nycflights data frame.
data(nycflights)
nycflights

## # A tibble: 32,735 x 16
##     year month   day dep_time dep_delay arr_time arr_delay carrier tailnum
##    <int> <int> <int>    <int>     <dbl>    <int>     <dbl> <chr>   <chr>  
##  1  2013     6    30      940        15     1216        -4 VX      N626VA 
##  2  2013     5     7     1657        -3     2104        10 DL      N3760C 
##  3  2013    12     8      859        -1     1238        11 DL      N712TW 
##  4  2013     5    14     1841        -4     2122       -34 DL      N914DL 
##  5  2013     7    21     1102        -3     1230        -8 9E      N823AY 
##  6  2013     1     1     1817        -3     2008         3 AA      N3AXAA 
##  7  2013    12     9     1259        14     1617        22 WN      N218WN 
##  8  2013     8    13     1920        85     2032        71 B6      N284JB 
##  9  2013     9    26      725       -10     1027        -8 AA      N3FSAA 
## 10  2013     4    30     1323        62     1549        60 EV      N12163 
## # ... with 32,725 more rows, and 7 more variables: flight <int>, origin <chr>,
## #   dest <chr>, air_time <dbl>, distance <dbl>, hour <dbl>, minute <dbl>
…
How delayed were flights that were headed to Los Angeles?

#select rows where flight destination is equal to 'Los Angeles'
nycflights[nycflights$dest == 'LAX', ]

## # A tibble: 1,583 x 16
##     year month   day dep_time dep_delay arr_time arr_delay carrier tailnum
##    <int> <int> <int>    <int>     <dbl>    <int>     <dbl> <chr>   <chr>  
##  1  2013     6    30      940        15     1216        -4 VX      N626VA 
##  2  2013    12     8      859        -1     1238        11 DL      N712TW 
##  3  2013     7     5      920         5     1204        -6 AA      N328AA 
##  4  2013     8    22     1108        -7     1352       -12 UA      N597UA 
##  5  2013     3    27     1158        -2     1455       -16 DL      N721TW 
##  6  2013     6     9     1914        -2     2234         9 UA      N26208 
##  7  2013    11    26     1545         0     1900       -20 AA      N324AA 
##  8  2013     3    24     2005         5     2248       -37 UA      N39726 
##  9  2013     9    17     1437        -8     1736       -22 UA      N505UA 
## 10  2013     3     5     1153        -7     1526        15 DL      N717TW 
## # ... with 1,573 more rows, and 7 more variables: flight <int>, origin <chr>,
## #   dest <chr>, air_time <dbl>, distance <dbl>, hour <dbl>, minute <dbl>

nycflights <- nycflights %>% mutate(month_name = month.name[month])
nycflights

## # A tibble: 32,735 x 17
##     year month   day dep_time dep_delay arr_time arr_delay carrier tailnum
##    <int> <int> <int>    <int>     <dbl>    <int>     <dbl> <chr>   <chr>  
##  1  2013     6    30      940        15     1216        -4 VX      N626VA 
##  2  2013     5     7     1657        -3     2104        10 DL      N3760C 
##  3  2013    12     8      859        -1     1238        11 DL      N712TW 
##  4  2013     5    14     1841        -4     2122       -34 DL      N914DL 
##  5  2013     7    21     1102        -3     1230        -8 9E      N823AY 
##  6  2013     1     1     1817        -3     2008         3 AA      N3AXAA 
##  7  2013    12     9     1259        14     1617        22 WN      N218WN 
##  8  2013     8    13     1920        85     2032        71 B6      N284JB 
##  9  2013     9    26      725       -10     1027        -8 AA      N3FSAA 
## 10  2013     4    30     1323        62     1549        60 EV      N12163 
## # ... with 32,725 more rows, and 8 more variables: flight <int>, origin <chr>,
## #   dest <chr>, air_time <dbl>, distance <dbl>, hour <dbl>, minute <dbl>,
## #   month_name <chr>

library(dplyr)

How do departure delays vary by month?

nycflights %>%
  select (flight, dep_delay, month_name) %>%
  arrange(desc(month_name))

## # A tibble: 32,735 x 3
##    flight dep_delay month_name
##     <int>     <dbl> <chr>     
##  1   2279       -10 September 
##  2    317        -7 September 
##  3   1416         8 September 
##  4   3370        -5 September 
##  5   3604        -2 September 
##  6   1053         4 September 
##  7    775       -10 September 
##  8   1410        32 September 
##  9   1580        -5 September 
## 10   4333        -2 September 
## # ... with 32,725 more rows
…
Which of the three major NYC airports has the best on time percentage for departing flights?

# Selecting data for JFK airport
JFK_airport <- nycflights %>%
  select (flight, origin, dep_time, dep_delay, air_time) %>%
 filter(origin =="JFK") 
JFK_airport

## # A tibble: 10,897 x 5
##    flight origin dep_time dep_delay air_time
##     <int> <chr>     <int>     <dbl>    <dbl>
##  1    407 JFK         940        15      313
##  2    329 JFK        1657        -3      216
##  3    422 JFK         859        -1      376
##  4   2391 JFK        1841        -4      135
##  5   1407 JFK        1920        85       48
##  6     20 JFK         940         5       50
##  7     34 JFK        1217        -4       46
##  8   1271 JFK         757        -3      131
##  9     27 JFK        1638         8      334
## 10     97 JFK        2310       105      223
## # ... with 10,887 more rows
…
JFK_percentage_delay

## [1] 38.15729

# Selecting data for LGA airport
LGA_airport <- nycflights %>%
  select (flight, origin, dep_time, dep_delay, air_time) %>%
 filter(origin =="LGA")

LGA_airport

## # A tibble: 10,067 x 5
##    flight origin dep_time dep_delay air_time
##     <int> <chr>     <int>     <dbl>    <dbl>
##  1   3652 LGA        1102        -3       50
##  2    353 LGA        1817        -3      138
##  3   2279 LGA         725       -10      148
##  4   1639 LGA        1320         5      161
##  5    645 LGA        2054       115      104
##  6   5273 LGA        1126        11       58
##  7    369 LGA        1626        -3      150
##  8   1433 LGA         626        -4      105
##  9   3388 LGA        1251        -4       83
## 10   3478 LGA         821        -8       77
## # ... with 10,057 more rows
…
LGA_percentage_delay

## [1] 33.07837

# Selecting data for EWR airport
EWR_airport <- nycflights %>%
  select (flight, origin, dep_time, dep_delay, air_time) %>%
 filter(origin =="EWR")

EWR_airport

## # A tibble: 11,771 x 5
##    flight origin dep_time dep_delay air_time
##     <int> <chr>     <int>     <dbl>    <dbl>
##  1   1428 EWR        1259        14      240
##  2   4162 EWR        1323        62      110
##  3   5790 EWR         809        -2       87
##  4   4412 EWR        2024        37       53
##  5   4241 EWR         644        -1       45
##  6   1030 EWR         859        -1      121
##  7   1724 EWR         729         9      154
##  8   3852 EWR        2253       123       53
##  9   3709 EWR         752        -3      103
## 10   4224 EWR        1944        15      117
## # ... with 11,761 more rows
…
Exercise 2:

Create a new data frame that includes flights headed to SFO in February,

and save this data frame as sfo_feb_flights. How many flights meet these criteria?

# Selecting data for JFK airport
SFO_airport <- nycflights %>%
 filter(dest =="SFO", month == 2) 
SFO_airport

## # A tibble: 68 x 17
##     year month   day dep_time dep_delay arr_time arr_delay carrier tailnum
##    <int> <int> <int>    <int>     <dbl>    <int>     <dbl> <chr>   <chr>  
##  1  2013     2    18     1527        57     1903        48 DL      N711ZX 
##  2  2013     2     3      613        14     1008        38 UA      N502UA 
##  3  2013     2    15      955        -5     1313       -28 DL      N717TW 
##  4  2013     2    18     1928        15     2239        -6 UA      N24212 
##  5  2013     2    24     1340         2     1644       -21 UA      N76269 
##  6  2013     2    25     1415       -10     1737       -13 UA      N532UA 
##  7  2013     2     7     1032         1     1352       -10 B6      N627JB 
##  8  2013     2    15     1805        20     2122         2 AA      N335AA 
##  9  2013     2    13     1056        -4     1412       -13 UA      N532UA 
## 10  2013     2     8      656        -4     1039        -6 DL      N710TW 
## # ... with 58 more rows, and 8 more variables: flight <int>, origin <chr>,
## #   dest <chr>, air_time <dbl>, distance <dbl>, hour <dbl>, minute <dbl>,
## #   month_name <chr>
…
On Time Departure rate for NYC Airports:

flying out of NYC and want to know which of the three major NYC airports has the best on time

departure rate of departing flights

# classifying each flight as on time or delayed by creating a new variable with the mutate function.
nycflights <- nycflights %>%
  mutate(dep_type = ifelse(dep_delay < 5, "on time", "delayed"))

nycflights

## # A tibble: 32,735 x 18
##     year month   day dep_time dep_delay arr_time arr_delay carrier tailnum
##    <int> <int> <int>    <int>     <dbl>    <int>     <dbl> <chr>   <chr>  
##  1  2013     6    30      940        15     1216        -4 VX      N626VA 
##  2  2013     5     7     1657        -3     2104        10 DL      N3760C 
##  3  2013    12     8      859        -1     1238        11 DL      N712TW 
##  4  2013     5    14     1841        -4     2122       -34 DL      N914DL 
##  5  2013     7    21     1102        -3     1230        -8 9E      N823AY 
##  6  2013     1     1     1817        -3     2008         3 AA      N3AXAA 
##  7  2013    12     9     1259        14     1617        22 WN      N218WN 
##  8  2013     8    13     1920        85     2032        71 B6      N284JB 
##  9  2013     9    26      725       -10     1027        -8 AA      N3FSAA 
## 10  2013     4    30     1323        62     1549        60 EV      N12163 
## # ... with 32,725 more rows, and 9 more variables: flight <int>, origin <chr>,
## #   dest <chr>, air_time <dbl>, distance <dbl>, hour <dbl>, minute <dbl>,
## #   month_name <chr>, dep_type <chr>
…
nycflights <- nycflights %>%
  mutate(avg_speed = distance / (air_time / 60))

nycflights

## # A tibble: 32,735 x 19
##     year month   day dep_time dep_delay arr_time arr_delay carrier tailnum
##    <int> <int> <int>    <int>     <dbl>    <int>     <dbl> <chr>   <chr>  
##  1  2013     6    30      940        15     1216        -4 VX      N626VA 
##  2  2013     5     7     1657        -3     2104        10 DL      N3760C 
##  3  2013    12     8      859        -1     1238        11 DL      N712TW 
##  4  2013     5    14     1841        -4     2122       -34 DL      N914DL 
##  5  2013     7    21     1102        -3     1230        -8 9E      N823AY 
##  6  2013     1     1     1817        -3     2008         3 AA      N3AXAA 
##  7  2013    12     9     1259        14     1617        22 WN      N218WN 
##  8  2013     8    13     1920        85     2032        71 B6      N284JB 
##  9  2013     9    26      725       -10     1027        -8 AA      N3FSAA 
## 10  2013     4    30     1323        62     1549        60 EV      N12163 
## # ... with 32,725 more rows, and 10 more variables: flight <int>, origin <chr>,
## #   dest <chr>, air_time <dbl>, distance <dbl>, hour <dbl>, minute <dbl>,
## #   month_name <chr>, dep_type <chr>, avg_speed <dbl>
…
