Week 10 Assignment â€“ Sentiment Analysis
…
## The following objects are masked from 'package:base':
## 
##     intersect, setdiff, setequal, union

The sentiments datasets:

The tidytext package provides access to several sentiment lexicons. The three general purpose lexions that are based on unigrams, i.e., single words are: 1. AFINN - lexicon assigns words with a score that runs between -5 and 5, with negative scores indicating negative sentiment and positive scores indicating positive sentiment. 2. nrc - lexicon categorizes words in a binary fashion (â€œyesâ€/â€œnoâ€) into categories of positive, negative. 3. bing - lexicon categorizes words in a binary fashion into positive and negative categories.

The function get_sentiments() allows us to get specific sentiment lexicons with the appropriate measures for each one.

get_sentiments("afinn")

## # A tibble: 2,477 x 2
##    word       value
##    <chr>      <dbl>
##  1 abandon       -2
##  2 abandoned     -2
##  3 abandons      -2
##  4 abducted      -2
##  5 abduction     -2
##  6 abductions    -2
##  7 abhor         -3
##  8 abhorred      -3
##  9 abhorrent     -3
## 10 abhors        -3
## # ... with 2,467 more rows

get_sentiments("bing")

## # A tibble: 6,786 x 2
##    word        sentiment
##    <chr>       <chr>    
##  1 2-faces     negative 
##  2 abnormal    negative 
##  3 abolish     negative 
##  4 abominable  negative 
##  5 abominably  negative 
##  6 abominate   negative 
##  7 abomination negative 
##  8 abort       negative 
##  9 aborted     negative 
## 10 aborts      negative 
## # ... with 6,776 more rows

get_sentiments("nrc")

## # A tibble: 13,875 x 2
##    word        sentiment
##    <chr>       <chr>    
##  1 abacus      trust    
##  2 abandon     fear     
##  3 abandon     negative 
##  4 abandon     sadness  
##  5 abandoned   anger    
##  6 abandoned   fear     
##  7 abandoned   negative 
##  8 abandoned   sadness  
##  9 abandonment anger    
## 10 abandonment fear     
## # ... with 13,865 more rows

Sentiment analysis with inner join:

library(janeaustenr)

## Warning: package 'janeaustenr' was built under R version 4.1.3

austen_books()

## # A tibble: 73,422 x 2
##    text                    book               
##  * <chr>                   <fct>              
##  1 "SENSE AND SENSIBILITY" Sense & Sensibility
##  2 ""                      Sense & Sensibility
##  3 "by Jane Austen"        Sense & Sensibility
##  4 ""                      Sense & Sensibility
##  5 "(1811)"                Sense & Sensibility
##  6 ""                      Sense & Sensibility
##  7 ""                      Sense & Sensibility
##  8 ""                      Sense & Sensibility
##  9 ""                      Sense & Sensibility
## 10 "CHAPTER 1"             Sense & Sensibility
## # ... with 73,412 more rows
…
Then, filter() the data frame with the text from the books for the words from Emma and then use inner_join() to perform the sentiment analysis

Use count() from dplyr, to count the most common joy words in Emma.

nrc_joy <- get_sentiments("nrc") %>% 
  filter(sentiment == "joy")

tidy_books %>%
  filter(book == "Emma") %>%
  inner_join(nrc_joy) %>%
  count(word, sort = TRUE)

## Joining, by = "word"

## # A tibble: 301 x 2
##    word          n
##    <chr>     <int>
##  1 good        359
##  2 friend      166
##  3 hope        143
##  4 happy       125
##  5 love        117
##  6 deal         92
##  7 found        92
##  8 present      89
##  9 kind         82
## 10 happiness    76
## # ... with 291 more rows
…
Comparing the three sentiment dictionaries:

Now, compare all three sentiment lexicons and examine how the sentiment changes across the narrative arc of Pride and Prejudice.

First, use filter() to choose only the words from the one novel we are interested in.

pride_prejudice <- tidy_books %>% 
  filter(book == "Pride & Prejudice")

pride_prejudice

## # A tibble: 122,204 x 4
##    book              linenumber chapter word     
##    <fct>                  <int>   <int> <chr>    
##  1 Pride & Prejudice          1       0 pride    
##  2 Pride & Prejudice          1       0 and      
##  3 Pride & Prejudice          1       0 prejudice
##  4 Pride & Prejudice          3       0 by       
##  5 Pride & Prejudice          3       0 jane     
##  6 Pride & Prejudice          3       0 austen   
##  7 Pride & Prejudice          7       1 chapter  
##  8 Pride & Prejudice          7       1 1        
##  9 Pride & Prejudice         10       1 it       
## 10 Pride & Prejudice         10       1 is       
## # ... with 122,194 more rows
…
Advantage of using the data frame for Sentiments and Words:

is that we can analyze word counts that contribute to each sentiment by using count() function.

bing_word_counts <- tidy_books %>%
  inner_join(get_sentiments("bing")) %>%
  count(word, sentiment, sort = TRUE) %>%
  ungroup()

## Joining, by = "word"

bing_word_counts

## # A tibble: 2,585 x 3
##    word     sentiment     n
##    <chr>    <chr>     <int>
##  1 miss     negative   1855
##  2 well     positive   1523
##  3 good     positive   1380
##  4 great    positive    981
##  5 like     positive    725
##  6 better   positive    639
##  7 enough   positive    613
##  8 happy    positive    534
##  9 love     positive    495
## 10 pleasure positive    462
## # ... with 2,575 more rows
…
A deviation from what is standard:

The word â€œmissâ€ is coded as negative but it is used as a title for young, unmarried women in Jane Austenâ€™s works.

A custom stop-words list can be used with bind_rows() funtion, to handle this deviation.

custom_stop_words <- bind_rows(tibble(word = c("miss"),  
                                      lexicon = c("custom")), 
                               stop_words)

custom_stop_words

## # A tibble: 1,150 x 2
##    word        lexicon
##    <chr>       <chr>  
##  1 miss        custom 
##  2 a           SMART  
##  3 a's         SMART  
##  4 able        SMART  
##  5 about       SMART  
##  6 above       SMART  
##  7 according   SMART  
##  8 accordingly SMART  
##  9 across      SMART  
## 10 actually    SMART  
## # ... with 1,140 more rows
…
The sentiment analysis algorithms look beyond only unigrams (i.e.Â single words) and try to understand the sentiment of a sentence as a whole. These algorithms try to understand that:

I am not having a good day.

is a sad sentence because of the use of negation.

here. text is tokenized into sentences, and it makes sense to use a new name for the output column in such a case.

p_and_p_sentences <- tibble(text = prideprejudice) %>% 
  unnest_tokens(sentence, text, token = "sentences")

p_and_p_sentences

## # A tibble: 15,545 x 1
##    sentence                                                                  
##    <chr>                                                                     
##  1 "pride and prejudice"                                                     
##  2 "by jane austen"                                                          
##  3 "chapter 1"                                                               
##  4 "it is a truth universally acknowledged, that a single man in possession" 
##  5 "of a good fortune, must be in want of a wife."                           
##  6 "however little known the feelings or views of such a man may be on his"  
##  7 "first entering a neighbourhood, this truth is so well fixed in the minds"
##  8 "of the surrounding families, that he is considered the rightful property"
##  9 "of some one or other of their daughters."                                
## 10 "\"my dear mr."                                                           
## # ... with 15,535 more rows
…
