Week 10 Assignment â€“ Sentiment Analysis
…
Analysizing using tidytool

we need to turn it into a one-term-per-document-per-row data frame first.

library(dplyr)
library(tidytext)

tweet_td <- tidy(dtm)

tweet_td

## # A tibble: 8,358 x 3
##    term    document count
##    <chr>   <chr>    <dbl>
##  1 amaz    1            1
##  2 final   1            1
##  3 glad    1            1
##  4 grill   1            2
##  5 kabob   1            1
##  6 last    1            1
##  7 night   1            1
##  8 weather 1            1
##  9 day     2            1
## 10 even    2            1
## # ... with 8,348 more rows

Performing Sentiment Analysis:

Performing sentiment analysis now using the lexicon from Bing Liu and collaborators, which assigns positive/negative labels for each word

ap_sentiments <- tweet_td %>%
  inner_join(get_sentiments("bing"), by = c(term = "word"))

ap_sentiments

## # A tibble: 1,018 x 4
##    term     document count sentiment
##    <chr>    <chr>    <dbl> <chr>    
##  1 glad     1            1 positive 
##  2 slowest  2            1 negative 
##  3 enjoy    4            1 positive 
##  4 nice     4            1 positive 
##  5 pleasant 4            1 positive 
##  6 delay    5            1 negative 
##  7 work     5            1 positive 
##  8 great    6            1 positive 
##  9 nice     6            1 positive 
## 10 work     6            1 positive 
## # ... with 1,008 more rows

We can find the most negative documents:

library(tidyr)

ap_sentiments %>%
  count(document, sentiment, wt = count) %>%
  spread(sentiment, n, fill = 0) %>%
  mutate(sentiment = positive - negative) %>%
  arrange(sentiment)

## # A tibble: 673 x 4
##    document negative positive sentiment
##    <chr>       <dbl>    <dbl>     <dbl>
##  1 405             7        0        -7
##  2 531             4        0        -4
##  3 178             3        0        -3
##  4 300             3        0        -3
##  5 564             3        0        -3
##  6 714             3        0        -3
##  7 811             3        0        -3
##  8 83              3        0        -3
##  9 962             3        0        -3
## 10 109             2        0        -2
## # ... with 663 more rows
…
