The Normal Distribution - Week 4
…
Filter the fastfood for values Mcdonalds and Dairy Queen

mcdonalds <- fastfood %>%
  filter(restaurant == "Mcdonalds")

mcdonalds

## # A tibble: 57 x 17
##    restaurant item      calories cal_fat total_fat sat_fat trans_fat cholesterol
##    <chr>      <chr>        <dbl>   <dbl>     <dbl>   <dbl>     <dbl>       <dbl>
##  1 Mcdonalds  Artisan ~      380      60         7       2       0            95
##  2 Mcdonalds  Single B~      840     410        45      17       1.5         130
##  3 Mcdonalds  Double B~     1130     600        67      27       3           220
##  4 Mcdonalds  Grilled ~      750     280        31      10       0.5         155
##  5 Mcdonalds  Crispy B~      920     410        45      12       0.5         120
##  6 Mcdonalds  Big Mac        540     250        28      10       1            80
##  7 Mcdonalds  Cheesebu~      300     100        12       5       0.5          40
##  8 Mcdonalds  Classic ~      510     210        24       4       0            65
##  9 Mcdonalds  Double C~      430     190        21      11       1            85
## 10 Mcdonalds  Double Q~      770     400        45      21       2.5         175
## # ... with 47 more rows, and 9 more variables: sodium <dbl>, total_carb <dbl>,
## #   fiber <dbl>, sugar <dbl>, protein <dbl>, vit_a <dbl>, vit_c <dbl>,
## #   calcium <dbl>, salad <chr>

dairy_queen <- fastfood %>%
  filter(restaurant == "Dairy Queen")

dairy_queen

## # A tibble: 42 x 17
##    restaurant  item     calories cal_fat total_fat sat_fat trans_fat cholesterol
##    <chr>       <chr>       <dbl>   <dbl>     <dbl>   <dbl>     <dbl>       <dbl>
##  1 Dairy Queen 1/2 lb.~     1000     660        74      26         2         170
##  2 Dairy Queen 1/2 lb.~      800     460        51      20         2         135
##  3 Dairy Queen 1/4 lb.~      630     330        37      13         1          95
##  4 Dairy Queen 1/4 lb.~      540     270        30      11         1          70
##  5 Dairy Queen 1/4 lb.~      570     310        35      11         1          75
##  6 Dairy Queen Origina~      400     160        18       9         1          65
##  7 Dairy Queen Origina~      630     310        34      18         2         125
##  8 Dairy Queen 4 Piece~     1030     480        53       9         1          80
##  9 Dairy Queen 6 Piece~     1260     590        66      11         1         120
## 10 Dairy Queen Bacon C~      420     240        26      11         1          60
## # ... with 32 more rows, and 9 more variables: sodium <dbl>, total_carb <dbl>,
## #   fiber <dbl>, sugar <dbl>, protein <dbl>, vit_a <dbl>, vit_c <dbl>,
## #   calcium <dbl>, salad <chr>
…
